%YAML 1.1
%TAG !u! tag:unity3d.com,2011:
--- !u!21 &2100000
Material:
  serializedVersion: 6
  m_ObjectHideFlags: 0
  m_CorrespondingSourceObject: {fileID: 0}
  m_PrefabInstance: {fileID: 0}
  m_PrefabAsset: {fileID: 0}
  m_Name: Grid
  m_Shader: {fileID: -6465566751694194690, guid: dc916985c0dbb2b4b8be2903a4860df5,
    type: 3}
  m_ShaderKeywords: 
  m_LightmapFlags: 4
  m_EnableInstancingVariants: 0
  m_DoubleSidedGI: 0
  m_CustomRenderQueue: -1
  stringTagMap: {}
  disabledShaderPasses: []
  m_SavedProperties:
    serializedVersion: 3
    m_TexEnvs: []
    m_Floats:
    - Vector1_BFC123E9: 10
    - Vector1_C6333EDB: 0.9
    m_Colors:
    - Vector2_65357B32: {r: 10, g: 10, b: 0, a: 0}
    - Vector2_D6A288A9: {r: 0.8, g: 0.5, b: 0, a: 0}
  m_BuildTextureStacks: []
