%YAML 1.1
%TAG !u! tag:unity3d.com,2011:
--- !u!1045 &1
EditorBuildSettings:
  m_ObjectHideFlags: 0
  serializedVersion: 2
  m_Scenes:
  - enabled: 1
    path: Assets/Scenes/Levels/Tutorial.unity
    guid: ab11adcc783bec947b4acfbb363a1488
  - enabled: 1
    path: Assets/Scenes/Levels/Level_1.unity
    guid: ae0e07c47463bcd48b499cb7ee532dec
  - enabled: 1
    path: Assets/Scenes/Levels/Level_2.unity
    guid: cc0f408255ab33d46936ef18143841b3
  - enabled: 1
    path: Assets/Scenes/Levels/Level_3.unity
    guid: cb33af14fe816ef4199e7c98cdd64bf5
  - enabled: 1
    path: Assets/Scenes/Levels/Level_4.unity
    guid: 0762e60e9904e654fb4f2c6eccaa3099
  m_configObjects: {}
